Babynames Report
…
Lets look at the flower names

babynames %>% filter(name %in% flowers$name) %>%
  group_by(name) %>% summarise(total = sum(n)) %>%
  arrange(total)

## # A tibble: 32 x 2
##             name total
##            <chr> <int>
##  1     Sunflower     6
##  2 Chrysanthemum    21
##  3       Verbena    98
##  4         Lilac   123
##  5         Fleur   160
##  6      Narcissa   190
##  7        Orchid   207
##  8      Marigold   292
##  9      Hyacinth   844
## 10      Fiorella   975
## # ... with 22 more rows
…
ournames <- full_join(pre, post, by = "name")  #notice that some rows have "NA" - means they're missing (i.e. zeros)

ournames %>%
  filter(is.na(npost)==T) %>%
  arrange(desc(npre)) -> ournames_l

ournames_l

## # A tibble: 5,480 x 3
##        name  npre npost
##       <chr> <int> <int>
##  1  Mafalda  1279    NA
##  2  Gladyce  1006    NA
##  3   Vlasta   873    NA
##  4    Hideo   805    NA
##  5   Hildur   718    NA
##  6   Minoru   675    NA
##  7    Besse   671    NA
##  8  Shizuko   620    NA
##  9   Shizue   608    NA
## 10 Idabelle   596    NA
## # ... with 5,470 more rows
…
